…
We also create factors from the variable *from*: there should be only two levels: your name, and your friend's name.

~~~ r
json$from = factor(json$from, levels = unique(json$from))
~~~

By now, you should have a nice data frame containing only the messages you're interested in.

~~~ r
> print(as_tibble(json), n = 1)
# A tibble: 5,323 x 6
  from            date                text   week                  hour   wday    
  <fct>           <chr>               <chr>  <dttm>                <int>  <ord>   
1 FriendName      2018-11-22T23:28:59  Hi !  2018-11-19 00:00:00    23   Thursday
# … with 5,322 more rows
…
